<svg width="180" height="93" viewBox="0 0 180 93" fill="none" xmlns="http://www.w3.org/2000/svg">
<rect width="180" height="93" fill="black" fill-opacity="0"/>
<rect width="72.3882" height="41.3642" fill="black" fill-opacity="0" transform="translate(107.612)"/>
<path d="M108.721 15.9627V0.277629H117.596C120.647 0.277629 122.173 2.35973 122.173 4.30302C122.173 6.2463 120.924 7.63435 119.538 7.91196C121.202 8.18957 122.589 9.71644 122.589 11.7985C122.589 14.0194 121.063 16.1015 118.012 16.1015H108.721V15.9627ZM118.012 4.99705C118.012 4.30302 117.458 3.74778 116.626 3.74778H112.743V6.38511H116.626C117.458 6.2463 118.012 5.69108 118.012 4.99705ZM118.29 11.1045C118.29 10.2717 117.735 9.71644 116.764 9.71644H112.743V12.4926H116.764C117.735 12.6314 118.29 12.0761 118.29 11.1045Z" fill="#202020"/>
<path d="M128.274 15.9627V0.277629H132.296V12.4926H138.675V15.9627H128.274Z" fill="#202020"/>
<path d="M142.835 8.18955C142.835 3.33134 146.441 0 151.294 0C156.148 0 159.754 3.33134 159.754 8.18955C159.754 13.0478 156.148 16.3791 151.294 16.3791C146.441 16.2403 142.835 12.909 142.835 8.18955ZM155.593 8.18955C155.593 5.55223 153.929 3.60897 151.294 3.60897C148.66 3.60897 146.995 5.55223 146.995 8.18955C146.995 10.6881 148.66 12.7702 151.294 12.7702C153.929 12.6313 155.593 10.6881 155.593 8.18955Z" fill="#202020"/>
<path d="M164.469 8.18955C164.469 3.19253 168.351 0 172.928 0C176.395 0 178.613 1.80448 179.584 3.88657L176.256 5.69106C175.701 4.71941 174.453 3.74776 172.928 3.74776C170.293 3.74776 168.49 5.69105 168.49 8.32836C168.49 10.9657 170.293 12.909 172.928 12.909C174.037 12.909 175.285 12.4926 175.84 11.9373V10.6881H172.373V6.9403H180V13.1866C178.336 14.9911 175.979 16.2403 173.066 16.2403C168.213 16.2403 164.469 13.1866 164.469 8.18955Z" fill="#202020"/>
<path d="M107.612 38.7269L109.692 35.9507C110.801 37.0612 112.604 37.6164 113.991 37.6164C115.794 37.6164 116.626 36.9224 116.626 36.0896C116.626 35.2567 115.932 34.7015 113.852 34.7015C113.159 34.7015 111.911 34.7015 111.772 34.7015V31.0925C112.049 31.0925 113.297 31.0925 113.852 31.0925C115.516 31.0925 116.348 30.6761 116.348 29.8433C116.348 28.8716 115.239 28.4552 113.713 28.4552C112.327 28.4552 110.94 29.0105 109.831 29.9821L107.889 27.4836C109.276 25.9567 111.217 24.9851 114.129 24.9851C118.151 24.9851 120.37 26.6508 120.37 29.2881C120.37 31.0926 118.844 32.4806 116.903 32.7582C118.567 32.897 120.647 34.2851 120.647 36.506C120.647 39.2821 118.012 41.2254 114.129 41.2254C111.079 41.2254 108.86 40.2537 107.612 38.7269Z" fill="#202020"/>
<path d="M125.639 33.1746C125.639 28.1776 128.69 24.9851 133.405 24.9851C135.208 24.9851 137.011 25.5403 138.259 26.512L136.456 29.5657C135.624 28.8716 134.792 28.594 133.405 28.594C131.464 28.594 129.661 29.9821 129.661 32.203C129.661 32.3418 129.661 32.3418 129.661 32.3418C130.493 31.3702 131.88 30.5373 133.544 30.5373C136.317 30.5373 138.952 32.3418 138.952 35.6731C138.952 38.8657 136.317 41.2254 132.712 41.2254C127.72 41.2254 125.639 37.6164 125.639 33.1746ZM134.931 35.9507C134.931 34.5627 133.544 34.1463 132.296 34.1463C131.325 34.1463 130.354 34.5627 129.661 35.2567C129.8 36.506 130.493 37.894 132.434 37.894C133.96 37.6164 134.931 36.7836 134.931 35.9507Z" fill="#202020"/>
<path d="M143.667 33.1746C143.667 29.0104 145.747 25.1239 150.462 25.1239C155.177 25.1239 157.257 29.1493 157.257 33.1746C157.257 37.2 155.177 41.3642 150.462 41.3642C145.747 41.3642 143.667 37.3388 143.667 33.1746ZM153.097 33.1746C153.097 30.3985 152.404 28.594 150.462 28.594C148.521 28.594 147.827 30.3985 147.827 33.1746C147.827 35.9507 148.521 37.7552 150.462 37.7552C152.265 37.6164 153.097 35.9507 153.097 33.1746Z" fill="#202020"/>
<rect width="56.5163" height="56.6391" fill="black" fill-opacity="0" transform="translate(18.2316 18.1123)"/>
<path d="M67.5349 70.9299C68.3669 70.2359 68.5056 69.403 68.2283 68.4314C66.9802 63.2955 65.7321 58.1597 64.3454 53.0239C64.2067 52.4687 64.3454 52.0523 64.7614 51.6358C65.5934 50.803 66.4255 49.9702 67.2575 49.1373C67.6736 48.7209 67.9509 48.1657 67.8122 47.4717C67.5349 45.9448 65.7321 45.3896 64.6227 46.5C64.2067 46.9164 63.652 47.4717 63.236 47.8881C63.0973 47.7493 63.0973 47.7493 63.0973 47.7493C62.4039 44.9732 61.7105 42.197 61.0172 39.4209C61.0172 39.1433 61.1558 38.8657 61.2945 38.5881C62.2652 37.6164 63.0973 36.6448 64.068 35.812C67.1189 32.7582 70.3084 29.5657 73.3592 26.3732C75.3007 24.4299 75.162 21.3761 73.2206 19.4329C71.2791 17.6284 68.2283 17.6284 66.2868 19.7105C62.8199 23.1806 59.3531 26.6508 55.8862 30.1209C55.1928 30.8149 54.6381 31.7866 53.9447 31.9254C53.1127 32.203 52.142 31.6478 51.1712 31.3702C49.2298 30.815 47.1497 30.3985 45.0695 29.8433C45.4856 29.4269 45.9016 29.0105 46.3176 28.5941C47.2883 27.6224 47.427 26.512 46.595 25.6791C45.7629 24.8463 44.6535 24.8463 43.6828 25.8179C42.8507 26.6508 42.0187 27.3448 41.3253 28.1776C40.9093 28.5941 40.4933 28.7329 39.9386 28.5941C34.8076 27.206 29.6766 25.9567 24.5456 24.5687C23.7136 24.2911 23.0202 24.5687 22.4655 25.1239C21.7721 25.9567 20.9401 26.6508 20.108 27.4836C19.4147 28.1776 19.5533 28.5941 20.2467 29.1493C26.9031 33.5911 33.6982 38.1717 40.3546 42.6135C40.9093 43.0299 41.6027 43.4463 42.1574 43.8627C42.0187 44.0015 42.0187 44.1403 41.88 44.1403C38.1358 47.8881 34.3916 51.6358 30.6473 55.3836C30.37 55.6612 29.954 55.6612 29.6766 55.6612C27.1805 55.3836 24.5456 55.106 22.0495 54.8284C20.9401 54.6896 19.9694 54.9672 19.276 55.8C19.1373 55.9388 18.86 56.2165 18.7213 56.3553C18.0279 57.1881 18.0279 57.6045 18.9986 58.1597C21.2174 59.409 23.4362 60.7971 25.655 61.9075C28.1512 63.018 29.954 64.8224 31.0634 67.3209C32.1728 69.6806 33.5595 71.7627 34.8076 73.9836C35.3623 74.9552 35.7783 74.9553 36.6104 74.2612C36.8877 73.9836 37.1651 73.706 37.4424 73.4284C37.9971 72.8732 38.2745 72.1791 38.1358 71.4851C37.8584 68.8478 37.5811 66.0717 37.1651 63.4344C37.1651 62.8792 37.1651 62.6015 37.5811 62.1851C41.1866 58.5761 44.7922 55.106 48.2591 51.4971C48.3977 51.3582 48.6751 51.0806 48.9524 50.9418C49.0911 51.2194 49.2298 51.3582 49.3685 51.4971C54.0834 58.5762 58.7984 65.7941 63.652 72.8732C64.2067 73.5672 64.6227 73.706 65.3161 73.012C66.1481 72.318 66.8415 71.6239 67.5349 70.9299Z" fill="#202020"/>
<path d="M16.641 0H5.547H0V5.55224V16.6567H5.547V5.55224H16.641V0Z" fill="#202020"/>
<path d="M87.3652 0H76.2712V5.55224H87.3652V16.6567H92.9122V5.55224V0H87.3652Z" fill="#202020"/>
<path d="M87.3652 76.3433V87.4478H76.2712V93H87.3652H92.9122V87.4478V76.3433H87.3652Z" fill="#202020"/>
<path d="M5.547 87.4478V76.3433H0V87.4478V93H5.547H16.641V87.4478H5.547Z" fill="#202020"/>
</svg>
